module example.com/go-rest-server

go 1.13

require (
	github.com/go-openapi/runtime v0.19.11
	github.com/go-playground/universal-translator v0.17.0 // indirect
	github.com/go-playground/validator v9.31.0+incompatible
	github.com/gorilla/mux v1.7.3
	github.com/leodido/go-urn v1.2.0 // indirect
	github.com/nicholasjackson/env v0.6.0
	github.com/stretchr/testify v1.4.0
	gopkg.in/go-playground/assert.v1 v1.2.1 // indirect
)
